<?xml version="1.0" encoding="UTF-8"?>
<testng-results skipped="0" failed="1" total="4" passed="3">
  <reporter-output>
  </reporter-output>
  <suite name="TestSuite" duration-ms="458654" started-at="2016-02-26T16:36:12Z" finished-at="2016-02-26T16:43:50Z">
    <groups>
    </groups>
    <test name="Fiori_Test_HTC" duration-ms="263157" started-at="2016-02-26T16:36:12Z" finished-at="2016-02-26T16:40:35Z">
      <class name="SeleniumRwdTest">
        <test-method status="PASS" signature="beforeSuite()[pri:0, instance:SeleniumRwdTest@29f0a0a2]" name="beforeSuite" is-config="true" duration-ms="106" started-at="2016-02-26T16:36:12Z" finished-at="2016-02-26T16:36:12Z">
          <reporter-output>
          </reporter-output>
        </test-method> <!-- beforeSuite -->
        <test-method status="PASS" signature="beforeTest(java.lang.String)[pri:0, instance:SeleniumRwdTest@29f0a0a2]" name="beforeTest" is-config="true" duration-ms="14123" started-at="2016-02-26T16:36:12Z" finished-at="2016-02-26T16:36:26Z">
          <params>
            <param index="0">
              <value>
                <![CDATA[HTC]]>
              </value>
            </param>
          </params>
          <reporter-output>
          </reporter-output>
        </test-method> <!-- beforeTest -->
        <test-method status="PASS" signature="beforeClass()[pri:0, instance:SeleniumRwdTest@29f0a0a2]" name="beforeClass" is-config="true" duration-ms="0" started-at="2016-02-26T16:36:26Z" finished-at="2016-02-26T16:36:26Z">
          <reporter-output>
          </reporter-output>
        </test-method> <!-- beforeClass -->
        <test-method status="PASS" signature="beforeMethod()[pri:0, instance:SeleniumRwdTest@29f0a0a2]" name="beforeMethod" is-config="true" duration-ms="0" started-at="2016-02-26T16:36:26Z" finished-at="2016-02-26T16:36:26Z">
          <reporter-output>
          </reporter-output>
        </test-method> <!-- beforeMethod -->
        <test-method status="PASS" signature="openApp()[pri:0, instance:SeleniumRwdTest@29f0a0a2]" name="openApp" duration-ms="234997" started-at="2016-02-26T16:36:26Z" finished-at="2016-02-26T16:40:21Z">
          <reporter-output>
          </reporter-output>
        </test-method> <!-- openApp -->
        <test-method status="PASS" signature="afterMethod()[pri:0, instance:SeleniumRwdTest@29f0a0a2]" name="afterMethod" is-config="true" duration-ms="0" started-at="2016-02-26T16:40:21Z" finished-at="2016-02-26T16:40:21Z">
          <reporter-output>
          </reporter-output>
        </test-method> <!-- afterMethod -->
        <test-method status="PASS" signature="testTearDown()[pri:0, instance:SeleniumRwdTest@29f0a0a2]" name="testTearDown" duration-ms="13921" started-at="2016-02-26T16:40:21Z" finished-at="2016-02-26T16:40:35Z">
          <reporter-output>
          </reporter-output>
        </test-method> <!-- testTearDown -->
        <test-method status="PASS" signature="beforeMethod()[pri:0, instance:SeleniumRwdTest@29f0a0a2]" name="beforeMethod" is-config="true" duration-ms="0" started-at="2016-02-26T16:40:21Z" finished-at="2016-02-26T16:40:21Z">
          <reporter-output>
          </reporter-output>
        </test-method> <!-- beforeMethod -->
        <test-method status="PASS" signature="afterMethod()[pri:0, instance:SeleniumRwdTest@29f0a0a2]" name="afterMethod" is-config="true" duration-ms="1" started-at="2016-02-26T16:40:35Z" finished-at="2016-02-26T16:40:35Z">
          <reporter-output>
          </reporter-output>
        </test-method> <!-- afterMethod -->
        <test-method status="PASS" signature="afterClass()[pri:0, instance:SeleniumRwdTest@29f0a0a2]" name="afterClass" is-config="true" duration-ms="0" started-at="2016-02-26T16:40:35Z" finished-at="2016-02-26T16:40:35Z">
          <reporter-output>
          </reporter-output>
        </test-method> <!-- afterClass -->
        <test-method status="PASS" signature="afterTest()[pri:0, instance:SeleniumRwdTest@29f0a0a2]" name="afterTest" is-config="true" duration-ms="0" started-at="2016-02-26T16:40:35Z" finished-at="2016-02-26T16:40:35Z">
          <reporter-output>
          </reporter-output>
        </test-method> <!-- afterTest -->
        <test-method status="PASS" signature="afterSuite()[pri:0, instance:SeleniumRwdTest@29f0a0a2]" name="afterSuite" is-config="true" duration-ms="0" started-at="2016-02-26T16:43:50Z" finished-at="2016-02-26T16:43:50Z">
          <reporter-output>
          </reporter-output>
        </test-method> <!-- afterSuite -->
      </class> <!-- SeleniumRwdTest -->
    </test> <!-- Fiori_Test_HTC -->
    <test name="Fiori_Test_Iphone6" duration-ms="458654" started-at="2016-02-26T16:36:12Z" finished-at="2016-02-26T16:43:50Z">
      <class name="SeleniumRwdTest">
        <test-method status="PASS" signature="beforeTest(java.lang.String)[pri:0, instance:SeleniumRwdTest@10cbf9d9]" name="beforeTest" is-config="true" duration-ms="17928" started-at="2016-02-26T16:36:12Z" finished-at="2016-02-26T16:36:30Z">
          <params>
            <param index="0">
              <value>
                <![CDATA[IPhone 6]]>
              </value>
            </param>
          </params>
          <reporter-output>
          </reporter-output>
        </test-method> <!-- beforeTest -->
        <test-method status="PASS" signature="beforeClass()[pri:0, instance:SeleniumRwdTest@10cbf9d9]" name="beforeClass" is-config="true" duration-ms="0" started-at="2016-02-26T16:36:30Z" finished-at="2016-02-26T16:36:30Z">
          <reporter-output>
          </reporter-output>
        </test-method> <!-- beforeClass -->
        <test-method status="PASS" signature="openApp()[pri:0, instance:SeleniumRwdTest@10cbf9d9]" name="openApp" duration-ms="296237" started-at="2016-02-26T16:36:30Z" finished-at="2016-02-26T16:41:26Z">
          <reporter-output>
          </reporter-output>
        </test-method> <!-- openApp -->
        <test-method status="PASS" signature="beforeMethod()[pri:0, instance:SeleniumRwdTest@10cbf9d9]" name="beforeMethod" is-config="true" duration-ms="0" started-at="2016-02-26T16:36:30Z" finished-at="2016-02-26T16:36:30Z">
          <reporter-output>
          </reporter-output>
        </test-method> <!-- beforeMethod -->
        <test-method status="PASS" signature="afterMethod()[pri:0, instance:SeleniumRwdTest@10cbf9d9]" name="afterMethod" is-config="true" duration-ms="1" started-at="2016-02-26T16:41:26Z" finished-at="2016-02-26T16:41:26Z">
          <reporter-output>
          </reporter-output>
        </test-method> <!-- afterMethod -->
        <test-method status="PASS" signature="beforeMethod()[pri:0, instance:SeleniumRwdTest@10cbf9d9]" name="beforeMethod" is-config="true" duration-ms="0" started-at="2016-02-26T16:41:26Z" finished-at="2016-02-26T16:41:26Z">
          <reporter-output>
          </reporter-output>
        </test-method> <!-- beforeMethod -->
        <test-method status="FAIL" signature="testTearDown()[pri:0, instance:SeleniumRwdTest@10cbf9d9]" name="testTearDown" duration-ms="144346" started-at="2016-02-26T16:41:26Z" finished-at="2016-02-26T16:43:50Z">
          <exception class="org.openqa.selenium.WebDriverException">
            <message>
              <![CDATA[Failed to execute command monitor stop: stopMonitors command failed. Reason: handset server: the device is recovering or disconnected.
Command duration or timeout: 144.34 seconds
Build info: version: '2.48.2', revision: '41bccdd10cf2c0560f637404c2d96164b67d9d67', time: '2015-10-09 13:08:06'
System info: host: 'adminits-MBP-4.home', ip: '192.168.1.112', os.name: 'Mac OS X', os.arch: 'x86_64', os.version: '10.11.2', java.version: '1.7.0_79'
Session ID: c915e5b1-9e57-4768-9697-141ba6fb2f2f
Driver info: org.openqa.selenium.remote.RemoteWebDriver
Capabilities [{platform=ANY, scriptName=RemoteWebDriver, serverConnector=, javascriptEnabled=true, host=demo.perfectomobile.com, browserName=mobileOS, executionId=philipps@perfectomobile.com_RemoteWebDriver_16-02-26_16_36_15_15203, rotatable=true, entityType=remote_web_driver, locationContextEnabled=true, webdriver.remote.sessionid=c915e5b1-9e57-4768-9697-141ba6fb2f2f, password=, version=, cssSelectorsEnabled=true, deviceName=F15118A63C51D54E3CEA474B32CFE2ECDAF1AB70, platformName=iOS, eclipseExecutionId=joset@perfectomobile.com_Eclipse_16-02-26_11_52_46_14822, reportKey=PRIVATE:RemoteWebDriver/RemoteWebDriver_16-02-26_16_36_15_15203.xml, user=, windTunnelReportUrl=https://demo.perfectomobile.com/nexperience/windtunnel/report/?reportRepositoryKey=PRIVATE:RemoteWebDriver/RemoteWebDriver_16-02-26_16_36_15_15203.xml&ownerId=philipps@perfectomobile.com&sharingCode=6619f7a4-74aa-4742-b44b-b7a246756047, takesScreenshot=true}]]]>
            </message>
            <full-stacktrace>
              <![CDATA[org.openqa.selenium.WebDriverException: Failed to execute command monitor stop: stopMonitors command failed. Reason: handset server: the device is recovering or disconnected.
Command duration or timeout: 144.34 seconds
Build info: version: '2.48.2', revision: '41bccdd10cf2c0560f637404c2d96164b67d9d67', time: '2015-10-09 13:08:06'
System info: host: 'adminits-MBP-4.home', ip: '192.168.1.112', os.name: 'Mac OS X', os.arch: 'x86_64', os.version: '10.11.2', java.version: '1.7.0_79'
Session ID: c915e5b1-9e57-4768-9697-141ba6fb2f2f
Driver info: org.openqa.selenium.remote.RemoteWebDriver
Capabilities [{platform=ANY, scriptName=RemoteWebDriver, serverConnector=, javascriptEnabled=true, host=demo.perfectomobile.com, browserName=mobileOS, executionId=philipps@perfectomobile.com_RemoteWebDriver_16-02-26_16_36_15_15203, rotatable=true, entityType=remote_web_driver, locationContextEnabled=true, webdriver.remote.sessionid=c915e5b1-9e57-4768-9697-141ba6fb2f2f, password=, version=, cssSelectorsEnabled=true, deviceName=F15118A63C51D54E3CEA474B32CFE2ECDAF1AB70, platformName=iOS, eclipseExecutionId=joset@perfectomobile.com_Eclipse_16-02-26_11_52_46_14822, reportKey=PRIVATE:RemoteWebDriver/RemoteWebDriver_16-02-26_16_36_15_15203.xml, user=, windTunnelReportUrl=https://demo.perfectomobile.com/nexperience/windtunnel/report/?reportRepositoryKey=PRIVATE:RemoteWebDriver/RemoteWebDriver_16-02-26_16_36_15_15203.xml&ownerId=philipps@perfectomobile.com&sharingCode=6619f7a4-74aa-4742-b44b-b7a246756047, takesScreenshot=true}]
	at sun.reflect.NativeConstructorAccessorImpl.newInstance0(Native Method)
	at sun.reflect.NativeConstructorAccessorImpl.newInstance(NativeConstructorAccessorImpl.java:57)
	at sun.reflect.DelegatingConstructorAccessorImpl.newInstance(DelegatingConstructorAccessorImpl.java:45)
	at java.lang.reflect.Constructor.newInstance(Constructor.java:526)
	at org.openqa.selenium.remote.ErrorHandler.createThrowable(ErrorHandler.java:206)
	at org.openqa.selenium.remote.ErrorHandler.throwIfResponseFailed(ErrorHandler.java:158)
	at org.openqa.selenium.remote.RemoteWebDriver.execute(RemoteWebDriver.java:647)
	at org.openqa.selenium.remote.RemoteWebDriver.executeScript(RemoteWebDriver.java:556)
	at SeleniumRwdTest.testTearDown(SeleniumRwdTest.java:304)
	at sun.reflect.NativeMethodAccessorImpl.invoke0(Native Method)
	at sun.reflect.NativeMethodAccessorImpl.invoke(NativeMethodAccessorImpl.java:57)
	at sun.reflect.DelegatingMethodAccessorImpl.invoke(DelegatingMethodAccessorImpl.java:43)
	at java.lang.reflect.Method.invoke(Method.java:606)
	at org.testng.internal.MethodInvocationHelper.invokeMethod(MethodInvocationHelper.java:85)
	at org.testng.internal.Invoker.invokeMethod(Invoker.java:696)
	at org.testng.internal.Invoker.invokeTestMethod(Invoker.java:882)
	at org.testng.internal.Invoker.invokeTestMethods(Invoker.java:1189)
	at org.testng.internal.TestMethodWorker.invokeTestMethods(TestMethodWorker.java:124)
	at org.testng.internal.TestMethodWorker.run(TestMethodWorker.java:108)
	at org.testng.TestRunner.privateRun(TestRunner.java:767)
	at org.testng.TestRunner.run(TestRunner.java:617)
	at org.testng.SuiteRunner.runTest(SuiteRunner.java:348)
	at org.testng.SuiteRunner.access$000(SuiteRunner.java:38)
	at org.testng.SuiteRunner$SuiteWorker.run(SuiteRunner.java:382)
	at org.testng.internal.thread.ThreadUtil$2.call(ThreadUtil.java:64)
	at java.util.concurrent.FutureTask.run(FutureTask.java:262)
	at java.util.concurrent.ThreadPoolExecutor.runWorker(ThreadPoolExecutor.java:1145)
	at java.util.concurrent.ThreadPoolExecutor$Worker.run(ThreadPoolExecutor.java:615)
	at java.lang.Thread.run(Thread.java:745)
Caused by: java.lang.RuntimeException: Failed to execute command monitor stop: stopMonitors command failed. Reason: handset server: the device is recovering or disconnected.
	at com.perfectomobile.selenium.MobileEntity.processCommonResponse(MobileEntity.java:90)
	at com.perfectomobile.selenium.MobileDevice.processResponse(MobileDevice.java:494)
	at com.perfectomobile.selenium.MobileEntity.executeDataCommand(MobileEntity.java:63)
	at com.perfectomobile.selenium.MobileEntity.executeDataCommand(MobileEntity.java:56)
	at com.perfectomobile.selenium.MobileDevice.executeGenericCommand(MobileDevice.java:565)
	at com.perfectomobile.selenium.MobileDevice.executeGenericCommand(MobileDevice.java:57)
	at com.perfectomobile.selenium.server.appium.ExecuteScript.executeGenericCommand(ExecuteScript.java:93)
	at com.perfectomobile.selenium.server.appium.ExecuteScript.executeGenericCommand(ExecuteScript.java:65)
	at com.perfectomobile.selenium.server.appium.ExecuteScript.mobileCall(ExecuteScript.java:47)
	at com.perfectomobile.selenium.server.MobileWebDriverHandler.call(MobileWebDriverHandler.java:26)
	at java.util.concurrent.FutureTask.run(FutureTask.java:262)
	at org.openqa.selenium.remote.server.DefaultSession$1.run(DefaultSession.java:176)
	at java.util.concurrent.ThreadPoolExecutor.runWorker(ThreadPoolExecutor.java:1145)
	at java.util.concurrent.ThreadPoolExecutor$Worker.run(ThreadPoolExecutor.java:615)
	at java.lang.Thread.run(Thread.java:744)
]]>
            </full-stacktrace>
          </exception> <!-- org.openqa.selenium.WebDriverException -->
          <reporter-output>
          </reporter-output>
        </test-method> <!-- testTearDown -->
        <test-method status="PASS" signature="afterMethod()[pri:0, instance:SeleniumRwdTest@10cbf9d9]" name="afterMethod" is-config="true" duration-ms="0" started-at="2016-02-26T16:43:50Z" finished-at="2016-02-26T16:43:50Z">
          <reporter-output>
          </reporter-output>
        </test-method> <!-- afterMethod -->
        <test-method status="PASS" signature="afterTest()[pri:0, instance:SeleniumRwdTest@10cbf9d9]" name="afterTest" is-config="true" duration-ms="0" started-at="2016-02-26T16:43:50Z" finished-at="2016-02-26T16:43:50Z">
          <reporter-output>
          </reporter-output>
        </test-method> <!-- afterTest -->
        <test-method status="PASS" signature="afterClass()[pri:0, instance:SeleniumRwdTest@10cbf9d9]" name="afterClass" is-config="true" duration-ms="0" started-at="2016-02-26T16:43:50Z" finished-at="2016-02-26T16:43:50Z">
          <reporter-output>
          </reporter-output>
        </test-method> <!-- afterClass -->
      </class> <!-- SeleniumRwdTest -->
    </test> <!-- Fiori_Test_Iphone6 -->
  </suite> <!-- TestSuite -->
</testng-results>
